Convert all Character variables to Factors | MyKo101
…
  #Store it in the tibble
  df[[this_name]] <- this_variable
  
  #Approximated 1/3 of the time, we'll add a numeric variable
  if(rbinom(1,1,1/3) == 1){
    this_name <- paste0("var_",ncol(df)+1)
    
    df[[this_name]] <- rnorm(1000)
  }
  
}
df

## # A tibble: 1,000 x 14
##       id var_2   var_3 var_4 var_5 var_6 var_7 var_8 var_9 var_10  var_11 var_12
##    <int> <chr>   <dbl> <chr> <chr> <chr> <chr> <chr> <chr> <chr>    <dbl> <chr> 
##  1     1 prop~  1.83   row   gove~ gene~ cow   else  women length  0.249  home  
##  2     2 four  -0.225  wind~ reas~ speak cow   squa~ gold  exerc~  0.688  numer~
##  3     3 leave  0.367  gold  plant came  cow   egg   human exerc~ -0.517  tell  
##  4     4 rock   0.919  that  meat  gene~ cow   leave human skill  -0.280  fill  
##  5     5 favor -1.01   mile  nine  tree  cow   very  hand  has    -0.0302 left  
##  6     6 shop   1.14   hunt  drink speak cow   take  meat  hit     0.908  over  
##  7     7 end    0.0427 engi~ seas~ gene~ cow   art   women exerc~  0.0395 unit  
##  8     8 favor -0.647  body  drink gene~ cow   diff~ doll~ most   -0.458  people
##  9     9 earth -2.47   fight nine  tree  cow   deci~ air   king    0.0182 child 
## 10    10 end    1.35   prot~ drink speak cow   carry women grand  -0.978  conti~
## # ... with 990 more rows, and 2 more variables: var_13 <chr>, var_14 <dbl>

The generation of this data is actually rather clunky as it’s using a loop, and we’re going to avoid that. Instead, we’re going to turn all these characters into factors in a single line. Here’s the line of code which will update the dataset, followed by the explanation:

The solution

With {tidyverse} processes, the key thing we’re trying to do is build a “sentence” explaining what we’re doing. Here’s our expression, followed by the English sentence equivalent

df %<>% mutate(across(where(is.character),as_factor))
#Update the df by mutating it across variables where it is a
#   character by performing as_factor on them

df

## # A tibble: 1,000 x 14
##       id var_2   var_3 var_4 var_5 var_6 var_7 var_8 var_9 var_10  var_11 var_12
##    <int> <fct>   <dbl> <fct> <fct> <fct> <fct> <fct> <fct> <fct>    <dbl> <fct> 
##  1     1 prop~  1.83   row   gove~ gene~ cow   else  women length  0.249  home  
##  2     2 four  -0.225  wind~ reas~ speak cow   squa~ gold  exerc~  0.688  numer~
##  3     3 leave  0.367  gold  plant came  cow   egg   human exerc~ -0.517  tell  
##  4     4 rock   0.919  that  meat  gene~ cow   leave human skill  -0.280  fill  
##  5     5 favor -1.01   mile  nine  tree  cow   very  hand  has    -0.0302 left  
##  6     6 shop   1.14   hunt  drink speak cow   take  meat  hit     0.908  over  
##  7     7 end    0.0427 engi~ seas~ gene~ cow   art   women exerc~  0.0395 unit  
##  8     8 favor -0.647  body  drink gene~ cow   diff~ doll~ most   -0.458  people
##  9     9 earth -2.47   fight nine  tree  cow   deci~ air   king    0.0182 child 
## 10    10 end    1.35   prot~ drink speak cow   carry women grand  -0.978  conti~
## # ... with 990 more rows, and 2 more variables: var_13 <fct>, var_14 <dbl>
…
